{
    "_id" : "af_1",
    "af_1" : [
        {
            "form_code" : "string"
        },
        {
            "form_date" : "datetime"
        },
        {
            "form_title" : "string"
        },
        {
            "office_id" : "string"
        },
        {
            "location_plan" : "string"
        },
        {
            "bo_fullname" : "string"
        },
        {
            "mmbsNick" : "string"
        },
        {
            "mmbsMtgnId" : "radio"
        },
        {
            "mmbsKtpNo" : "string"
        },
        {
            "mmbsKtpValidDate" : "datetime"
        },
        {
            "mmbsBirthMctyId" : "string"
        },
        {
            "mmbsBirthDate" : "string"
        },
        {
            "mmbsStatus" : "radio"
        },
        {
            "mmbsMtrgId" : "radio"
        },
        {
            "bo_ktp_address" : "string"
        },
        {
            "bo_ktp_city" : "string"
        },
        {
            "bo_ktp_province" : "string"
        },
        {
            "bo_ktp_post_code" : "string"
        },
        {
            "bo_address" : "string"
        },
        {
            "bo_city" : "string"
        },
        {
            "bo_province" : "string"
        },
        {
            "bo_post_code" : "int"
        },
        {
            "mmbsPhone1" : "string"
        },
        {
            "mmbsPhone2" : "string"
        },
        {
            "mmbsCellPhone1" : "string"
        },
        {
            "mmbsCellPhone2" : "string"
        },
        {
            "mmbsEmail" : "string"
        },
        {
            "mmbsEmergencyName" : "string"
        },
        {
            "mmbsEmergencyRelation" : "string"
        },
        {
            "mmbsEmergencyAddress" : "string"
        },
        {
            "mmbsEmergencyPhone" : "string"
        },
        {
            "mmbsEmergencyCellPhone" : "string"
        },
        {
            "mmbsReferenceName" : "string"
        },
        {
            "mmbsReferenceAddress" : "string"
        },
        {
            "mmbsReferenceCellPhone" : "string"
        },
        {
            "mmbsLanguage" : "string"
        },
        {
            "mmbsRealEstateJoin" : "radio"
        },
        {
            "mmbsRealEstateSector" : "string"
        },
        {
            "mmbsRealEstateTime" : "int"
        },
        {
            "mmbsRealEstateUnit" : "string"
        },
        {
            "mmbsRemaxJoin" : "radio"
        },
        {
            "mmbsRemaxPosition" : "string"
        },
        {
            "mmbsRemaxOffice" : "string"
        },
        {
            "mmbsRemaxTime" : "int"
        },
        {
            "mmbsRemaxUnit" : "string"
        },
        {
            "mmbsOtherJoin" : "radio"
        },
        {
            "mmbsOtherPosition" : "string"
        },
        {
            "mmbsOtherOffice" : "string"
        },
        {
            "mmbsOtherTime" : "int"
        },
        {
            "mmbsOtherUnit" : "string"
        },
        {
            "mmbsReason" : "string"
        },
        {
            "mmbsMspaId" : "radio"
        },
        {
            "mmbsAssociationJoin" : "radio"
        },
        {
            "mmbsAssociationName" : "string"
        }
    ]
}
